{
  "taskId": 201,
  "name": "Сombinatorics 1",
  "difficulty": 2.7,
  "type": "trigonometry",
  "stepsNum": 4,
  "time": 120,
  "originalExpression": "C(m,n)",
  "finalExpression": "A(m,n)/m!",
  "allSubstitutions":[
    {"left":"C(m,n)","right":"m!/(n!(m-n)!)"},
    {"left":"m!/(n!(m-n)!)","right":"C(m,n)"},
    {"left":"A(m,n)","right":"m!/(m-n)!"},
    {"left":"m!/(m-n)!","right":"A(m,n)"},
    {"left":"P(n)","right":"n!"},
    {"left":"n!","right":"P(n)"}
  ]
}