{
  "taskId": 118,
  "name": "Level 10 Simple",
  "difficulty": 3.4,
  "type": "set",
  "stepsNum": 3,
  "time": 90,
  "originalExpression": "(!A\\B)|C",
  "finalExpression": "A|B->C",
  "allSubstitutions":[
    {"left":"A|(B|C)","right":"A|B|C"},
    {"left":"A|B|C","right":"A|(B|C)"},
    {"left":"A&(B&C)","right":"A&B&C"},
    {"left":"A&B&C","right":"A&(B&C)"},
    {"left":"A&(B&C)","right":"(A&B)&C"},
    {"left":"(A|B)|C","right":"A|B|C"},
    {"left":"A|B|C","right":"(A|B)|C"},
    {"left":"(A&B)&C","right":"A&B&C"},
    {"left":"A&B&C","right":"(A&B)&C"},
    {"left":"A|(B&C)","right":"(A|B)&(A|C)"},
    {"left":"(A|B)&(A|C)","right":"A|(B&C)"},
    {"left":"A&(B|C)","right":"(A&B)|(A&C)"},
    {"left":"(A&B)|(A&C)","right":"A&(B|C)"},
    {"left":"!(A&B)","right":"!A|!B"},
    {"left":"!(A&B)","right":"!(B&A)"},
    {"left":"!A|!B","right":"!(A&B)"},
    {"left":"!(A|B)","right":"!A&!B"},
    {"left":"!(A|B)","right":"!B&!A"},
    {"left":"!(A|B)","right":"!(B|A)"},
    {"left":"!A&!B","right":"!(A|B)"},
    {"left":"!A|B","right":"A->B"},
    {"left":"A->B","right":"!A|B"},
    {"left":"A&!B","right":"A\\B"},
    {"left":"A\\B","right":"A&!B"},
    {"left":"!(!A)","right":"A"},
    {"left":"A","right":"!(!A)"},
    {"left":"A&(A|B)","right":"A"},
    {"left":"A","right":"A&(A|B)"},
    {"left":"A|A","right":"A"},
    {"left":"A","right":"A|A"},
    {"left":"A&A","right":"A"},
    {"left":"A&B","right":"B&A"},
    {"left":"A|B","right":"B|A"},
    {"left":"A","right":"A&A"},
    {"left":"A\\B","right":"!(B->A)"},
    {"left":"!(B->A)","right":"A\\B"},
    {"left":"B->A","right":"!(A\\B)"},
    {"left":"!(A\\B)","right":"B->A"}
  ]
}